* Launching the alias.RegulatedReceiver client
[RegulatedReceiver]	Started...
[RegulatedReceiver]	1	2231
[RegulatedReceiver]	2	1123
[RegulatedReceiver]	3	986
[RegulatedReceiver]	4	893
[RegulatedReceiver]	5	1156
[RegulatedReceiver]	6	789
[RegulatedReceiver]	7	719
[RegulatedReceiver]	8	1293
[RegulatedReceiver]	9	531
[RegulatedReceiver]	10	537
[RegulatedReceiver]	11	516
[RegulatedReceiver]	12	510
[RegulatedReceiver]	13	520
[RegulatedReceiver]	14	908
[RegulatedReceiver]	15	862
[RegulatedReceiver]	16	487
[RegulatedReceiver]	17	446
[RegulatedReceiver]	18	498
[RegulatedReceiver]	19	456
[RegulatedReceiver]	20	857
[RegulatedReceiver]	21	545
[RegulatedReceiver]	22	468
[RegulatedReceiver]	23	479
[RegulatedReceiver]	24	522
[RegulatedReceiver]	25	463
[RegulatedReceiver]	26	456
[RegulatedReceiver]	27	454
[RegulatedReceiver]	28	450
[RegulatedReceiver]	29	392
[RegulatedReceiver]	30	394
[RegulatedReceiver]	31	438
[RegulatedReceiver]	32	508
[RegulatedReceiver]	33	559
[RegulatedReceiver]	34	748
[RegulatedReceiver]	35	487
[RegulatedReceiver]	36	406
[RegulatedReceiver]	37	651
[RegulatedReceiver]	38	435
[RegulatedReceiver]	39	380
[RegulatedReceiver]	40	502
[RegulatedReceiver]	41	654
[RegulatedReceiver]	42	446
[RegulatedReceiver]	43	370
[RegulatedReceiver]	44	459
[RegulatedReceiver]	45	690
[RegulatedReceiver]	46	373
[RegulatedReceiver]	47	382
[RegulatedReceiver]	48	434
[RegulatedReceiver]	49	809
[RegulatedReceiver]	50	381
[RegulatedReceiver]	51	388
[RegulatedReceiver]	52	430
[RegulatedReceiver]	53	433
[RegulatedReceiver]	54	425
[RegulatedReceiver]	55	425
[RegulatedReceiver]	56	353
[RegulatedReceiver]	57	465
[RegulatedReceiver]	58	642
[RegulatedReceiver]	59	331
[RegulatedReceiver]	60	412
[RegulatedReceiver]	61	411
[RegulatedReceiver]	62	421
[RegulatedReceiver]	63	368
[RegulatedReceiver]	64	364
[RegulatedReceiver]	65	504
[RegulatedReceiver]	66	423
[RegulatedReceiver]	67	436
[RegulatedReceiver]	68	403
[RegulatedReceiver]	69	394
[RegulatedReceiver]	70	355
[RegulatedReceiver]	71	552
[RegulatedReceiver]	72	656
[RegulatedReceiver]	73	563
[RegulatedReceiver]	74	437
[RegulatedReceiver]	75	346
[RegulatedReceiver]	76	411
[RegulatedReceiver]	77	415
[RegulatedReceiver]	78	417
[RegulatedReceiver]	79	373
[RegulatedReceiver]	80	353
[RegulatedReceiver]	81	477
[RegulatedReceiver]	82	433
[RegulatedReceiver]	83	416
[RegulatedReceiver]	84	388
[RegulatedReceiver]	85	309
[RegulatedReceiver]	86	392
[RegulatedReceiver]	87	429
[RegulatedReceiver]	88	411
[RegulatedReceiver]	89	336
[RegulatedReceiver]	90	576
[RegulatedReceiver]	91	316
[RegulatedReceiver]	92	441
[RegulatedReceiver]	93	397
[RegulatedReceiver]	94	389
[RegulatedReceiver]	95	300
[RegulatedReceiver]	96	648
[RegulatedReceiver]	97	508
[RegulatedReceiver]	98	512
[RegulatedReceiver]	99	314
[RegulatedReceiver]	100	377
[RegulatedReceiver]	101	378
[RegulatedReceiver]	102	305
[RegulatedReceiver]	103	347
[RegulatedReceiver]	104	455
[RegulatedReceiver]	105	519
[RegulatedReceiver]	106	440
[RegulatedReceiver]	107	419
[RegulatedReceiver]	108	307
[RegulatedReceiver]	109	417
[RegulatedReceiver]	110	374
[RegulatedReceiver]	111	358
[RegulatedReceiver]	112	300
[RegulatedReceiver]	113	350
[RegulatedReceiver]	114	312
[RegulatedReceiver]	115	346
[RegulatedReceiver]	116	443
[RegulatedReceiver]	117	396
[RegulatedReceiver]	118	301
[RegulatedReceiver]	119	283
[RegulatedReceiver]	120	341
[RegulatedReceiver]	121	394
[RegulatedReceiver]	122	443
[RegulatedReceiver]	123	572
[RegulatedReceiver]	124	382
[RegulatedReceiver]	125	407
[RegulatedReceiver]	126	426
[RegulatedReceiver]	127	434
[RegulatedReceiver]	128	444
[RegulatedReceiver]	129	429
[RegulatedReceiver]	130	446
[RegulatedReceiver]	131	414
[RegulatedReceiver]	132	549
[RegulatedReceiver]	133	426
[RegulatedReceiver]	134	426
[RegulatedReceiver]	135	417
[RegulatedReceiver]	136	436
[RegulatedReceiver]	137	430
[RegulatedReceiver]	138	462
[RegulatedReceiver]	139	455
[RegulatedReceiver]	140	582
[RegulatedReceiver]	141	496
[RegulatedReceiver]	142	312
[RegulatedReceiver]	143	355
[RegulatedReceiver]	144	469
[RegulatedReceiver]	145	445
[RegulatedReceiver]	146	452
[RegulatedReceiver]	147	500
[RegulatedReceiver]	148	416
[RegulatedReceiver]	149	428
[RegulatedReceiver]	150	489
[RegulatedReceiver]	151	343
[RegulatedReceiver]	152	368
[RegulatedReceiver]	153	437
[RegulatedReceiver]	154	444
[RegulatedReceiver]	155	455
[RegulatedReceiver]	156	424
[RegulatedReceiver]	157	627
[RegulatedReceiver]	158	462
[RegulatedReceiver]	159	277
[RegulatedReceiver]	160	441
[RegulatedReceiver]	161	503
[RegulatedReceiver]	162	344
[RegulatedReceiver]	163	378
[RegulatedReceiver]	164	435
[RegulatedReceiver]	165	615
[RegulatedReceiver]	166	437
[RegulatedReceiver]	167	305
[RegulatedReceiver]	168	430
[RegulatedReceiver]	169	487
[RegulatedReceiver]	170	510
[RegulatedReceiver]	171	348
[RegulatedReceiver]	172	432
[RegulatedReceiver]	173	487
[RegulatedReceiver]	174	706
[RegulatedReceiver]	175	436
[RegulatedReceiver]	176	247
[RegulatedReceiver]	177	351
[RegulatedReceiver]	178	424
[RegulatedReceiver]	179	432
[RegulatedReceiver]	180	436
[RegulatedReceiver]	181	436
[RegulatedReceiver]	182	532
[RegulatedReceiver]	183	495
[RegulatedReceiver]	184	324
[RegulatedReceiver]	185	449
[RegulatedReceiver]	186	489
[RegulatedReceiver]	187	336
[RegulatedReceiver]	188	445
[RegulatedReceiver]	189	657
[RegulatedReceiver]	190	468
[RegulatedReceiver]	191	482
[RegulatedReceiver]	192	280
[RegulatedReceiver]	193	453
[RegulatedReceiver]	194	476
[RegulatedReceiver]	195	440
[RegulatedReceiver]	196	426
[RegulatedReceiver]	197	476
[RegulatedReceiver]	198	422
[RegulatedReceiver]	199	602
[RegulatedReceiver]	200	441
[RegulatedReceiver]	201	307
[RegulatedReceiver]	202	473
[RegulatedReceiver]	203	689
[RegulatedReceiver]	204	250
[RegulatedReceiver]	205	461
[RegulatedReceiver]	206	684
[RegulatedReceiver]	207	341
[RegulatedReceiver]	208	521
[RegulatedReceiver]	209	342
[RegulatedReceiver]	210	455
[RegulatedReceiver]	211	447
[RegulatedReceiver]	212	453
[RegulatedReceiver]	213	434
[RegulatedReceiver]	214	422
[RegulatedReceiver]	215	417
[RegulatedReceiver]	216	629
[RegulatedReceiver]	217	390
[RegulatedReceiver]	218	335
[RegulatedReceiver]	219	440
[RegulatedReceiver]	220	518
[RegulatedReceiver]	221	333
[RegulatedReceiver]	222	450
[RegulatedReceiver]	223	505
[RegulatedReceiver]	224	397
[RegulatedReceiver]	225	435
[RegulatedReceiver]	226	467
[RegulatedReceiver]	227	453
[RegulatedReceiver]	228	430
[RegulatedReceiver]	229	422
[RegulatedReceiver]	230	422
[RegulatedReceiver]	231	433
[RegulatedReceiver]	232	617
[RegulatedReceiver]	233	474
[RegulatedReceiver]	234	325
[RegulatedReceiver]	235	446
[RegulatedReceiver]	236	515
[RegulatedReceiver]	237	333
[RegulatedReceiver]	238	451
[RegulatedReceiver]	239	575
[RegulatedReceiver]	240	294
[RegulatedReceiver]	241	437
[RegulatedReceiver]	242	464
[RegulatedReceiver]	243	457
[RegulatedReceiver]	244	423
[RegulatedReceiver]	245	426
[RegulatedReceiver]	246	430
[RegulatedReceiver]	247	411
[RegulatedReceiver]	248	441
[RegulatedReceiver]	249	589
[RegulatedReceiver]	250	426
[RegulatedReceiver]	251	321
[RegulatedReceiver]	252	419
[RegulatedReceiver]	253	584
[RegulatedReceiver]	254	504
[RegulatedReceiver]	255	283
[RegulatedReceiver]	256	435
[RegulatedReceiver]	257	617
[RegulatedReceiver]	258	464
[RegulatedReceiver]	259	286
[RegulatedReceiver]	260	448
[RegulatedReceiver]	261	468
[RegulatedReceiver]	262	437
[RegulatedReceiver]	263	440
[RegulatedReceiver]	264	467
[RegulatedReceiver]	265	447
[RegulatedReceiver]	266	510
[RegulatedReceiver]	267	423
[RegulatedReceiver]	268	467
[RegulatedReceiver]	269	438
[RegulatedReceiver]	270	439
[RegulatedReceiver]	271	442
[RegulatedReceiver]	272	514
[RegulatedReceiver]	273	321
[RegulatedReceiver]	274	605
[RegulatedReceiver]	275	481
[RegulatedReceiver]	276	288
[RegulatedReceiver]	277	362
[RegulatedReceiver]	278	427
[RegulatedReceiver]	279	447
[RegulatedReceiver]	280	438
[RegulatedReceiver]	281	442
[RegulatedReceiver]	282	458
[RegulatedReceiver]	283	525
[RegulatedReceiver]	284	410
[RegulatedReceiver]	285	418
[RegulatedReceiver]	286	457
[RegulatedReceiver]	287	453
[RegulatedReceiver]	288	411
[RegulatedReceiver]	289	428
[RegulatedReceiver]	290	504
[RegulatedReceiver]	291	386
[RegulatedReceiver]	292	358
[RegulatedReceiver]	293	435
[RegulatedReceiver]	294	448
[RegulatedReceiver]	295	495
[RegulatedReceiver]	296	483
[RegulatedReceiver]	297	450
[RegulatedReceiver]	298	429
[RegulatedReceiver]	299	518
[RegulatedReceiver]	300	413
[RegulatedReceiver]	301	431
[RegulatedReceiver]	302	424
[RegulatedReceiver]	303	419
[RegulatedReceiver]	304	421
[RegulatedReceiver]	305	427
[RegulatedReceiver]	306	426
[RegulatedReceiver]	307	417
[RegulatedReceiver]	308	685
[RegulatedReceiver]	309	496
[RegulatedReceiver]	310	258
[RegulatedReceiver]	311	427
[RegulatedReceiver]	312	460
[RegulatedReceiver]	313	424
[RegulatedReceiver]	314	417
[RegulatedReceiver]	315	441
[RegulatedReceiver]	316	613
[RegulatedReceiver]	317	417
[RegulatedReceiver]	318	320
[RegulatedReceiver]	319	455
[RegulatedReceiver]	320	460
[RegulatedReceiver]	321	419
[RegulatedReceiver]	322	440
[RegulatedReceiver]	323	456
[RegulatedReceiver]	324	429
[RegulatedReceiver]	325	683
[RegulatedReceiver]	326	440
[RegulatedReceiver]	327	285
[RegulatedReceiver]	328	512
[RegulatedReceiver]	329	327
[RegulatedReceiver]	330	571
[RegulatedReceiver]	331	305
[RegulatedReceiver]	332	446
[RegulatedReceiver]	333	706
[RegulatedReceiver]	334	410
[RegulatedReceiver]	335	277
[RegulatedReceiver]	336	346
[RegulatedReceiver]	337	462
[RegulatedReceiver]	338	462
[RegulatedReceiver]	339	428
[RegulatedReceiver]	340	421
[RegulatedReceiver]	341	519
[RegulatedReceiver]	342	422
[RegulatedReceiver]	343	402
[RegulatedReceiver]	344	422
[RegulatedReceiver]	345	413
[RegulatedReceiver]	346	484
[RegulatedReceiver]	347	522
[RegulatedReceiver]	348	312
[RegulatedReceiver]	349	459
[RegulatedReceiver]	350	611
[RegulatedReceiver]	351	472
[RegulatedReceiver]	352	294
[RegulatedReceiver]	353	477
[RegulatedReceiver]	354	483
[RegulatedReceiver]	355	462
[RegulatedReceiver]	356	499
[RegulatedReceiver]	357	339
[RegulatedReceiver]	358	447
[RegulatedReceiver]	359	408
[RegulatedReceiver]	360	451
[RegulatedReceiver]	361	421
[RegulatedReceiver]	362	413
[RegulatedReceiver]	363	450
[RegulatedReceiver]	364	450
[RegulatedReceiver]	365	424
[RegulatedReceiver]	366	453
[RegulatedReceiver]	367	525
[RegulatedReceiver]	368	384
[RegulatedReceiver]	369	417
[RegulatedReceiver]	370	415
[RegulatedReceiver]	371	413
[RegulatedReceiver]	372	412
[RegulatedReceiver]	373	420
[RegulatedReceiver]	374	435
[RegulatedReceiver]	375	606
[RegulatedReceiver]	376	496
[RegulatedReceiver]	377	460
[RegulatedReceiver]	378	291
[RegulatedReceiver]	379	443
[RegulatedReceiver]	380	460
[RegulatedReceiver]	381	466
[RegulatedReceiver]	382	459
[RegulatedReceiver]	383	505
[RegulatedReceiver]	384	404
[RegulatedReceiver]	385	494
[RegulatedReceiver]	386	329
[RegulatedReceiver]	387	431
[RegulatedReceiver]	388	480
[RegulatedReceiver]	389	456
[RegulatedReceiver]	390	442
[RegulatedReceiver]	391	419
[RegulatedReceiver]	392	677
[RegulatedReceiver]	393	430
[RegulatedReceiver]	394	289
[RegulatedReceiver]	395	369
[RegulatedReceiver]	396	445
[RegulatedReceiver]	397	513
[RegulatedReceiver]	398	334
[RegulatedReceiver]	399	431
[RegulatedReceiver]	400	613
[RegulatedReceiver]	401	477
[RegulatedReceiver]	402	285
[RegulatedReceiver]	403	450
[RegulatedReceiver]	404	569
[RegulatedReceiver]	405	295
[RegulatedReceiver]	406	455
[RegulatedReceiver]	407	445
[RegulatedReceiver]	408	534
[RegulatedReceiver]	409	462
[RegulatedReceiver]	410	345
[RegulatedReceiver]	411	459
[RegulatedReceiver]	412	458
[RegulatedReceiver]	413	432
[RegulatedReceiver]	414	400
[RegulatedReceiver]	415	433
[RegulatedReceiver]	416	441
[RegulatedReceiver]	417	625
[RegulatedReceiver]	418	419
[RegulatedReceiver]	419	319
[RegulatedReceiver]	420	379
[RegulatedReceiver]	421	413
[RegulatedReceiver]	422	432
[RegulatedReceiver]	423	531
[RegulatedReceiver]	424	318
[RegulatedReceiver]	425	621
[RegulatedReceiver]	426	466
[RegulatedReceiver]	427	292
[RegulatedReceiver]	428	444
[RegulatedReceiver]	429	471
[RegulatedReceiver]	430	456
[RegulatedReceiver]	431	419
[RegulatedReceiver]	432	403
[RegulatedReceiver]	433	430
[RegulatedReceiver]	434	651
[RegulatedReceiver]	435	458
[RegulatedReceiver]	436	252
[RegulatedReceiver]	437	348
[RegulatedReceiver]	438	441
[RegulatedReceiver]	439	446
[RegulatedReceiver]	440	420
[RegulatedReceiver]	441	449
[RegulatedReceiver]	442	695
[RegulatedReceiver]	443	531
[RegulatedReceiver]	444	478
[RegulatedReceiver]	445	502
[RegulatedReceiver]	446	502
[RegulatedReceiver]	447	484
[RegulatedReceiver]	448	451
[RegulatedReceiver]	449	257
[RegulatedReceiver]	450	437
[RegulatedReceiver]	451	707
[RegulatedReceiver]	452	481
[RegulatedReceiver]	453	453
[RegulatedReceiver]	454	252
[RegulatedReceiver]	455	456
[RegulatedReceiver]	456	459
[RegulatedReceiver]	457	424
[RegulatedReceiver]	458	465
[RegulatedReceiver]	459	635
[RegulatedReceiver]	460	522
[RegulatedReceiver]	461	255
[RegulatedReceiver]	462	346
[RegulatedReceiver]	463	532
[RegulatedReceiver]	464	314
[RegulatedReceiver]	465	385
[RegulatedReceiver]	466	437
[RegulatedReceiver]	467	606
[RegulatedReceiver]	468	413
[RegulatedReceiver]	469	320
[RegulatedReceiver]	470	450
[RegulatedReceiver]	471	451
[RegulatedReceiver]	472	420
[RegulatedReceiver]	473	414
[RegulatedReceiver]	474	433
[RegulatedReceiver]	475	442
[RegulatedReceiver]	476	561
[RegulatedReceiver]	477	420
[RegulatedReceiver]	478	427
[RegulatedReceiver]	479	420
[RegulatedReceiver]	480	462
[RegulatedReceiver]	481	398
[RegulatedReceiver]	482	432
[RegulatedReceiver]	483	433
[RegulatedReceiver]	484	517
[RegulatedReceiver]	485	413
[RegulatedReceiver]	486	456
[RegulatedReceiver]	487	442
[RegulatedReceiver]	488	435
[RegulatedReceiver]	489	449
[RegulatedReceiver]	490	450
[RegulatedReceiver]	491	418
[RegulatedReceiver]	492	525
[RegulatedReceiver]	493	416
[RegulatedReceiver]	494	417
[RegulatedReceiver]	495	417
[RegulatedReceiver]	496	420
[RegulatedReceiver]	497	429
[RegulatedReceiver]	498	434
[RegulatedReceiver]	499	463
[RegulatedReceiver]	500	411
[RegulatedReceiver]	501	512
[RegulatedReceiver]	502	452
[RegulatedReceiver]	503	449
[RegulatedReceiver]	504	432
[RegulatedReceiver]	505	424
[RegulatedReceiver]	506	420
[RegulatedReceiver]	507	423
[RegulatedReceiver]	508	430
[RegulatedReceiver]	509	503
[RegulatedReceiver]	510	407
[RegulatedReceiver]	511	444
[RegulatedReceiver]	512	433
[RegulatedReceiver]	513	420
[RegulatedReceiver]	514	418
[RegulatedReceiver]	515	433
[RegulatedReceiver]	516	472
[RegulatedReceiver]	517	520
[RegulatedReceiver]	518	386
[RegulatedReceiver]	519	403
[RegulatedReceiver]	520	421
[RegulatedReceiver]	521	436
[RegulatedReceiver]	522	457
[RegulatedReceiver]	523	437
[RegulatedReceiver]	524	415
[RegulatedReceiver]	525	441
[RegulatedReceiver]	526	589
[RegulatedReceiver]	527	457
[RegulatedReceiver]	528	453
[RegulatedReceiver]	529	334
[RegulatedReceiver]	530	462
[RegulatedReceiver]	531	485
[RegulatedReceiver]	532	446
[RegulatedReceiver]	533	450
[RegulatedReceiver]	534	609
[RegulatedReceiver]	535	476
[RegulatedReceiver]	536	324
[RegulatedReceiver]	537	360
[RegulatedReceiver]	538	389
[RegulatedReceiver]	539	434
[RegulatedReceiver]	540	444
[RegulatedReceiver]	541	453
[RegulatedReceiver]	542	423
[RegulatedReceiver]	543	522
[RegulatedReceiver]	544	411
[RegulatedReceiver]	545	430
[RegulatedReceiver]	546	422
[RegulatedReceiver]	547	463
[RegulatedReceiver]	548	452
[RegulatedReceiver]	549	419
[RegulatedReceiver]	550	439
[RegulatedReceiver]	551	571
[RegulatedReceiver]	552	468
[RegulatedReceiver]	553	304
[RegulatedReceiver]	554	447
[RegulatedReceiver]	555	581
[RegulatedReceiver]	556	286
[RegulatedReceiver]	557	447
[RegulatedReceiver]	558	441
[RegulatedReceiver]	559	454
[RegulatedReceiver]	560	645
[RegulatedReceiver]	561	418
[RegulatedReceiver]	562	288
[RegulatedReceiver]	563	458
[RegulatedReceiver]	564	452
[RegulatedReceiver]	565	419
[RegulatedReceiver]	566	426
[RegulatedReceiver]	567	431
[RegulatedReceiver]	568	594
[RegulatedReceiver]	569	433
[RegulatedReceiver]	570	311
[RegulatedReceiver]	571	375
[RegulatedReceiver]	572	436
[RegulatedReceiver]	573	448
[RegulatedReceiver]	574	535
[RegulatedReceiver]	575	322
[RegulatedReceiver]	576	556
[RegulatedReceiver]	577	474
[RegulatedReceiver]	578	324
[RegulatedReceiver]	579	430
[RegulatedReceiver]	580	492
[RegulatedReceiver]	581	334
[RegulatedReceiver]	582	444
[RegulatedReceiver]	583	465
[RegulatedReceiver]	584	473
[RegulatedReceiver]	585	570
[RegulatedReceiver]	586	388
[RegulatedReceiver]	587	386
[RegulatedReceiver]	588	427
[RegulatedReceiver]	589	454
[RegulatedReceiver]	590	425
[RegulatedReceiver]	591	397
[RegulatedReceiver]	592	440
[RegulatedReceiver]	593	613
[RegulatedReceiver]	594	459
[RegulatedReceiver]	595	295
[RegulatedReceiver]	596	429
[RegulatedReceiver]	597	489
[RegulatedReceiver]	598	342
[RegulatedReceiver]	599	430
[RegulatedReceiver]	600	497
[RegulatedReceiver]	601	411
[RegulatedReceiver]	602	433
[RegulatedReceiver]	603	472
[RegulatedReceiver]	604	456
[RegulatedReceiver]	605	421
[RegulatedReceiver]	606	406
[RegulatedReceiver]	607	434
[RegulatedReceiver]	608	446
[RegulatedReceiver]	609	438
[RegulatedReceiver]	610	604
[RegulatedReceiver]	611	514
[RegulatedReceiver]	612	277
[RegulatedReceiver]	613	335
[RegulatedReceiver]	614	445
[RegulatedReceiver]	615	514
[RegulatedReceiver]	616	450
[RegulatedReceiver]	617	445
[RegulatedReceiver]	618	556
[RegulatedReceiver]	619	507
[RegulatedReceiver]	620	292
[RegulatedReceiver]	621	375
[RegulatedReceiver]	622	442
[RegulatedReceiver]	623	423
[RegulatedReceiver]	624	421
[RegulatedReceiver]	625	424
[RegulatedReceiver]	626	428
[RegulatedReceiver]	627	576
[RegulatedReceiver]	628	448
[RegulatedReceiver]	629	319
[RegulatedReceiver]	630	508
[RegulatedReceiver]	631	321
[RegulatedReceiver]	632	444
[RegulatedReceiver]	633	482
[RegulatedReceiver]	634	447
[RegulatedReceiver]	635	629
[RegulatedReceiver]	636	454
[RegulatedReceiver]	637	286
[RegulatedReceiver]	638	443
[RegulatedReceiver]	639	466
[RegulatedReceiver]	640	446
[RegulatedReceiver]	641	438
[RegulatedReceiver]	642	439
[RegulatedReceiver]	643	548
[RegulatedReceiver]	644	474
[RegulatedReceiver]	645	319
[RegulatedReceiver]	646	446
[RegulatedReceiver]	647	454
[RegulatedReceiver]	648	454
[RegulatedReceiver]	649	486
[RegulatedReceiver]	650	397
[RegulatedReceiver]	651	423
[RegulatedReceiver]	652	623
[RegulatedReceiver]	653	456
[RegulatedReceiver]	654	280
[RegulatedReceiver]	655	345
[RegulatedReceiver]	656	411
[RegulatedReceiver]	657	417
[RegulatedReceiver]	658	437
[RegulatedReceiver]	659	431
[RegulatedReceiver]	660	718
[RegulatedReceiver]	661	447
[RegulatedReceiver]	662	250
[RegulatedReceiver]	663	472
[RegulatedReceiver]	664	437
[RegulatedReceiver]	665	478
[RegulatedReceiver]	666	453
[RegulatedReceiver]	667	431
[RegulatedReceiver]	668	458
[RegulatedReceiver]	669	468
[RegulatedReceiver]	670	407
[RegulatedReceiver]	671	420
[RegulatedReceiver]	672	422
[RegulatedReceiver]	673	430
[RegulatedReceiver]	674	435
[RegulatedReceiver]	675	422
[RegulatedReceiver]	676	423
[RegulatedReceiver]	677	562
[RegulatedReceiver]	678	386
[RegulatedReceiver]	679	422
[RegulatedReceiver]	680	420
[RegulatedReceiver]	681	430
[RegulatedReceiver]	682	422
[RegulatedReceiver]	683	404
[RegulatedReceiver]	684	440
[RegulatedReceiver]	685	616
[RegulatedReceiver]	686	399
[RegulatedReceiver]	687	356
[RegulatedReceiver]	688	370
[RegulatedReceiver]	689	442
[RegulatedReceiver]	690	448
[RegulatedReceiver]	691	450
[RegulatedReceiver]	692	435
[RegulatedReceiver]	693	422
[RegulatedReceiver]	694	501
[RegulatedReceiver]	695	416
[RegulatedReceiver]	696	428
[RegulatedReceiver]	697	419
[RegulatedReceiver]	698	405
[RegulatedReceiver]	699	428
[RegulatedReceiver]	700	438
[RegulatedReceiver]	701	441
[RegulatedReceiver]	702	561
[RegulatedReceiver]	703	432
[RegulatedReceiver]	704	334
[RegulatedReceiver]	705	418
[RegulatedReceiver]	706	567
[RegulatedReceiver]	707	305
[RegulatedReceiver]	708	334
[RegulatedReceiver]	709	448
[RegulatedReceiver]	710	647
[RegulatedReceiver]	711	428
[RegulatedReceiver]	712	282
[RegulatedReceiver]	713	433
[RegulatedReceiver]	714	474
[RegulatedReceiver]	715	455
[RegulatedReceiver]	716	418
[RegulatedReceiver]	717	418
[RegulatedReceiver]	718	426
[RegulatedReceiver]	719	748
[RegulatedReceiver]	720	447
[RegulatedReceiver]	721	243
[RegulatedReceiver]	722	453
[RegulatedReceiver]	723	451
[RegulatedReceiver]	724	444
[RegulatedReceiver]	725	501
[RegulatedReceiver]	726	339
[RegulatedReceiver]	727	542
[RegulatedReceiver]	728	468
[RegulatedReceiver]	729	328
[RegulatedReceiver]	730	432
[RegulatedReceiver]	731	462
[RegulatedReceiver]	732	452
[RegulatedReceiver]	733	425
[RegulatedReceiver]	734	415
[RegulatedReceiver]	735	435
[RegulatedReceiver]	736	631
[RegulatedReceiver]	737	481
[RegulatedReceiver]	738	474
[RegulatedReceiver]	739	269
[RegulatedReceiver]	740	441
[RegulatedReceiver]	741	491
[RegulatedReceiver]	742	344
[RegulatedReceiver]	743	457
[RegulatedReceiver]	744	724
[RegulatedReceiver]	745	452
[RegulatedReceiver]	746	248
[RegulatedReceiver]	747	463
[RegulatedReceiver]	748	459
[RegulatedReceiver]	749	422
[RegulatedReceiver]	750	424
[RegulatedReceiver]	751	435
[RegulatedReceiver]	752	514
[RegulatedReceiver]	753	415
[RegulatedReceiver]	754	422
[RegulatedReceiver]	755	432
[RegulatedReceiver]	756	423
[RegulatedReceiver]	757	425
[RegulatedReceiver]	758	422
[RegulatedReceiver]	759	428
[RegulatedReceiver]	760	421
[RegulatedReceiver]	761	557
[RegulatedReceiver]	762	557
[RegulatedReceiver]	763	282
[RegulatedReceiver]	764	361
[RegulatedReceiver]	765	423
[RegulatedReceiver]	766	450
[RegulatedReceiver]	767	488
[RegulatedReceiver]	768	337
[RegulatedReceiver]	769	622
[RegulatedReceiver]	770	454
[RegulatedReceiver]	771	289
[RegulatedReceiver]	772	437
[RegulatedReceiver]	773	515
[RegulatedReceiver]	774	328
[RegulatedReceiver]	775	387
[RegulatedReceiver]	776	423
[RegulatedReceiver]	777	425
[RegulatedReceiver]	778	499
[RegulatedReceiver]	779	428
[RegulatedReceiver]	780	482
[RegulatedReceiver]	781	582
[RegulatedReceiver]	782	288
[RegulatedReceiver]	783	450
[RegulatedReceiver]	784	456
[RegulatedReceiver]	785	428
[RegulatedReceiver]	786	509
[RegulatedReceiver]	787	425
[RegulatedReceiver]	788	417
[RegulatedReceiver]	789	445
[RegulatedReceiver]	790	470
[RegulatedReceiver]	791	451
[RegulatedReceiver]	792	435
[RegulatedReceiver]	793	409
[RegulatedReceiver]	794	517
[RegulatedReceiver]	795	415
[RegulatedReceiver]	796	423
[RegulatedReceiver]	797	420
[RegulatedReceiver]	798	423
[RegulatedReceiver]	799	431
[RegulatedReceiver]	800	467
[RegulatedReceiver]	801	405
[RegulatedReceiver]	802	425
[RegulatedReceiver]	803	554
[RegulatedReceiver]	804	394
[RegulatedReceiver]	805	465
[RegulatedReceiver]	806	459
[RegulatedReceiver]	807	421
[RegulatedReceiver]	808	414
[RegulatedReceiver]	809	436
[RegulatedReceiver]	810	452
[RegulatedReceiver]	811	539
[RegulatedReceiver]	812	414
[RegulatedReceiver]	813	423
[RegulatedReceiver]	814	413
[RegulatedReceiver]	815	462
[RegulatedReceiver]	816	451
[RegulatedReceiver]	817	430
[RegulatedReceiver]	818	426
[RegulatedReceiver]	819	459
[RegulatedReceiver]	820	458
[RegulatedReceiver]	821	406
[RegulatedReceiver]	822	438
[RegulatedReceiver]	823	433
[RegulatedReceiver]	824	444
[RegulatedReceiver]	825	451
[RegulatedReceiver]	826	425
[RegulatedReceiver]	827	420
[RegulatedReceiver]	828	509
[RegulatedReceiver]	829	407
[RegulatedReceiver]	830	434
[RegulatedReceiver]	831	437
[RegulatedReceiver]	832	461
[RegulatedReceiver]	833	428
[RegulatedReceiver]	834	411
[RegulatedReceiver]	835	438
[RegulatedReceiver]	836	619
[RegulatedReceiver]	837	478
[RegulatedReceiver]	838	324
[RegulatedReceiver]	839	440
[RegulatedReceiver]	840	481
[RegulatedReceiver]	841	455
[RegulatedReceiver]	842	425
[RegulatedReceiver]	843	429
[RegulatedReceiver]	844	503
[RegulatedReceiver]	845	739
[RegulatedReceiver]	846	439
[RegulatedReceiver]	847	257
[RegulatedReceiver]	848	451
[RegulatedReceiver]	849	481
[RegulatedReceiver]	850	450
[RegulatedReceiver]	851	455
[RegulatedReceiver]	852	429
[RegulatedReceiver]	853	709
[RegulatedReceiver]	854	445
[RegulatedReceiver]	855	257
[RegulatedReceiver]	856	432
[RegulatedReceiver]	857	600
[RegulatedReceiver]	858	272
[RegulatedReceiver]	859	364
[RegulatedReceiver]	860	401
[RegulatedReceiver]	861	597
[RegulatedReceiver]	862	476
[RegulatedReceiver]	863	293
[RegulatedReceiver]	864	361
[RegulatedReceiver]	865	434
[RegulatedReceiver]	866	444
[RegulatedReceiver]	867	444
[RegulatedReceiver]	868	447
[RegulatedReceiver]	869	464
[RegulatedReceiver]	870	559
[RegulatedReceiver]	871	389
[RegulatedReceiver]	872	409
[RegulatedReceiver]	873	448
[RegulatedReceiver]	874	448
[RegulatedReceiver]	875	438
[RegulatedReceiver]	876	520
[RegulatedReceiver]	877	326
[RegulatedReceiver]	878	438
[RegulatedReceiver]	879	406
[RegulatedReceiver]	880	436
[RegulatedReceiver]	881	446
[RegulatedReceiver]	882	443
[RegulatedReceiver]	883	439
[RegulatedReceiver]	884	456
[RegulatedReceiver]	885	424
[RegulatedReceiver]	886	416
[RegulatedReceiver]	887	505
[RegulatedReceiver]	888	429
[RegulatedReceiver]	889	416
[RegulatedReceiver]	890	420
[RegulatedReceiver]	891	423
[RegulatedReceiver]	892	421
[RegulatedReceiver]	893	415
[RegulatedReceiver]	894	489
[RegulatedReceiver]	895	540
[RegulatedReceiver]	896	396
[RegulatedReceiver]	897	407
[RegulatedReceiver]	898	431
[RegulatedReceiver]	899	443
[RegulatedReceiver]	900	444
[RegulatedReceiver]	901	439
[RegulatedReceiver]	902	452
[RegulatedReceiver]	903	520
[RegulatedReceiver]	904	404
[RegulatedReceiver]	905	412
[RegulatedReceiver]	906	448
[RegulatedReceiver]	907	446
[RegulatedReceiver]	908	440
[RegulatedReceiver]	909	460
[RegulatedReceiver]	910	463
[RegulatedReceiver]	911	430
[RegulatedReceiver]	912	705
[RegulatedReceiver]	913	447
[RegulatedReceiver]	914	265
[RegulatedReceiver]	915	343
[RegulatedReceiver]	916	409
[RegulatedReceiver]	917	453
[RegulatedReceiver]	918	426
[RegulatedReceiver]	919	414
[RegulatedReceiver]	920	571
[RegulatedReceiver]	921	424
[RegulatedReceiver]	922	342
[RegulatedReceiver]	923	383
[RegulatedReceiver]	924	440
[RegulatedReceiver]	925	449
[RegulatedReceiver]	926	444
[RegulatedReceiver]	927	445
[RegulatedReceiver]	928	457
[RegulatedReceiver]	929	512
[RegulatedReceiver]	930	456
[RegulatedReceiver]	931	404
[RegulatedReceiver]	932	434
[RegulatedReceiver]	933	427
[RegulatedReceiver]	934	416
[RegulatedReceiver]	935	445
[RegulatedReceiver]	936	453
[RegulatedReceiver]	937	521
[RegulatedReceiver]	938	395
[RegulatedReceiver]	939	431
[RegulatedReceiver]	940	431
[RegulatedReceiver]	941	419
[RegulatedReceiver]	942	417
[RegulatedReceiver]	943	424
[RegulatedReceiver]	944	423
[RegulatedReceiver]	945	512
[RegulatedReceiver]	946	420
[RegulatedReceiver]	947	432
[RegulatedReceiver]	948	469
[RegulatedReceiver]	949	398
[RegulatedReceiver]	950	426
[RegulatedReceiver]	951	425
[RegulatedReceiver]	952	420
[RegulatedReceiver]	953	415
[RegulatedReceiver]	954	652
[RegulatedReceiver]	955	440
[RegulatedReceiver]	956	269
[RegulatedReceiver]	957	462
[RegulatedReceiver]	958	467
[RegulatedReceiver]	959	432
[RegulatedReceiver]	960	425
[RegulatedReceiver]	961	431
[RegulatedReceiver]	962	731
[RegulatedReceiver]	963	456
[RegulatedReceiver]	964	241
[RegulatedReceiver]	965	332
[RegulatedReceiver]	966	465
[RegulatedReceiver]	967	508
[RegulatedReceiver]	968	331
[RegulatedReceiver]	969	454
[RegulatedReceiver]	970	446
[RegulatedReceiver]	971	502
[RegulatedReceiver]	972	425
[RegulatedReceiver]	973	423
[RegulatedReceiver]	974	409
[RegulatedReceiver]	975	437
[RegulatedReceiver]	976	457
[RegulatedReceiver]	977	424
[RegulatedReceiver]	978	412
[RegulatedReceiver]	979	575
[RegulatedReceiver]	980	427
[RegulatedReceiver]	981	326
[RegulatedReceiver]	982	444
[RegulatedReceiver]	983	478
[RegulatedReceiver]	984	451
[RegulatedReceiver]	985	445
[RegulatedReceiver]	986	513
[RegulatedReceiver]	987	430
[RegulatedReceiver]	988	459
[RegulatedReceiver]	989	440
[RegulatedReceiver]	990	442
[RegulatedReceiver]	991	454
[RegulatedReceiver]	992	428
[RegulatedReceiver]	993	412
[RegulatedReceiver]	994	442
[RegulatedReceiver]	995	453
[RegulatedReceiver]	996	520
[RegulatedReceiver]	997	400
[RegulatedReceiver]	998	407
[RegulatedReceiver]	999	366
[RegulatedReceiver]	1000	331
[RegulatedReceiver]	T	500001
[RegulatedReceiver]	Done.
